Getting Started · QuranTree.jl
…
julia> crpsdata = table(crps);
julia> tnzldata = table(tnzl);
julia> crpsdataQuranic Arabic Corpus (morphology)
(C) 2011 Kais Dukes

128219×7 DataFrame
    Row │ chapter  verse  word   part   form        tag     features           ⋯
        │ Int64    Int64  Int64  Int64  String      String  String             ⋯
────────┼───────────────────────────────────────────────────────────────────────
      1 │       1      1      1      1  bi          P       PREFIX|bi+         ⋯
      2 │       1      1      1      2  somi        N       STEM|POS:N|LEM:{so
      3 │       1      1      2      1  {ll~ahi     PN      STEM|POS:PN|LEM:{l
      4 │       1      1      3      1  {l          DET     PREFIX|Al+
      5 │       1      1      3      2  r~aHoma`ni  ADJ     STEM|POS:ADJ|LEM:r ⋯
      6 │       1      1      4      1  {l          DET     PREFIX|Al+
      7 │       1      1      4      2  r~aHiymi    ADJ     STEM|POS:ADJ|LEM:r
      8 │       1      2      1      1  {lo         DET     PREFIX|Al+
   ⋮    │    ⋮       ⋮      ⋮      ⋮        ⋮         ⋮                     ⋮  ⋱
 128213 │     114      5      5      2  n~aAsi      N       STEM|POS:N|LEM:n~a ⋯
 128214 │     114      6      1      1  mina        P       STEM|POS:P|LEM:min
 128215 │     114      6      2      1  {lo         DET     PREFIX|Al+
 128216 │     114      6      2      2  jin~api     N       STEM|POS:N|LEM:jin
 128217 │     114      6      3      1  wa          CONJ    PREFIX|w:CONJ+     ⋯
 128218 │     114      6      3      2  {l          DET     PREFIX|Al+
 128219 │     114      6      3      3  n~aAsi      N       STEM|POS:N|LEM:n~a
                                                1 column and 128204 rows omitted
julia> tnzldataTanzil Quran Text (Uthmani)
(C) 2008-2010 Tanzil.net

6236×3 DataFrame
  Row │ chapter  verse  form
      │ Int64    Int64  String
──────┼───────────────────────────────────────────────────
    1 │       1      1  بِسْمِ ٱللَّهِ ٱلرَّحْمَٰنِ ٱلرَّحِيمِ
    2 │       1      2  ٱلْحَمْدُ لِلَّهِ رَبِّ ٱلْعَٰلَمِينَ
    3 │       1      3  ٱلرَّحْمَٰنِ ٱلرَّحِيمِ
    4 │       1      4  مَٰلِكِ يَوْمِ ٱلدِّينِ
    5 │       1      5  إِيَّاكَ نَعْبُدُ وَإِيَّاكَ نَسْتَعِينُ
    6 │       1      6  ٱهْدِنَا ٱلصِّرَٰطَ ٱلْمُسْتَقِيمَ
    7 │       1      7  صِرَٰطَ ٱلَّذِينَ أَنْعَمْتَ عَلَيْهِمْ غَيْرِ ٱلْمَغْضُو…
    8 │       2      1  بِسْمِ ٱللَّهِ ٱلرَّحْمَٰنِ ٱلرَّحِيمِ الٓمٓ
  ⋮   │    ⋮       ⋮                    ⋮
 6230 │     113      5  وَمِن شَرِّ حَاسِدٍ إِذَا حَسَدَ
 6231 │     114      1  بِسْمِ ٱللَّهِ ٱلرَّحْمَٰنِ ٱلرَّحِيمِ قُلْ أَعُوذُ بِ…
 6232 │     114      2  مَلِكِ ٱلنَّاسِ
 6233 │     114      3  إِلَٰهِ ٱلنَّاسِ
 6234 │     114      4  مِن شَرِّ ٱلْوَسْوَاسِ ٱلْخَنَّاسِ
 6235 │     114      5  ٱلَّذِى يُوَسْوِسُ فِى صُدُورِ ٱلنَّاسِ
 6236 │     114      6  مِنَ ٱلْجِنَّةِ وَٱلنَّاسِ
                                         6221 rows omitted
…
