Topic Modeling · QuranTree.jl
…
Edit on GitHub
Topic Modeling
Another application of Natural Language Processing is the Topic Modeling, which aims to extract the topics from a given document. In this section, we are going to apply this to Chapter 18 (the Cave) of the Qur'an. To do this, we are going to use the TextAnalysis.jl library. The model for this task will be the Latent Dirichlet Allocation (LDA). To start with, load the data as follows:

julia> using QuranTree
julia> using TextAnalysis
julia> using Yunir
julia> crps, tnzl = QuranData() |> load;
julia> crpsdata = table(crps)Quranic Arabic Corpus (morphology)
(C) 2011 Kais Dukes

128219×7 DataFrame
    Row │ chapter  verse  word   part   form        tag     features           ⋯
        │ Int64    Int64  Int64  Int64  String      String  String             ⋯
────────┼───────────────────────────────────────────────────────────────────────
      1 │       1      1      1      1  bi          P       PREFIX|bi+         ⋯
      2 │       1      1      1      2  somi        N       STEM|POS:N|LEM:{so
      3 │       1      1      2      1  {ll~ahi     PN      STEM|POS:PN|LEM:{l
      4 │       1      1      3      1  {l          DET     PREFIX|Al+
      5 │       1      1      3      2  r~aHoma`ni  ADJ     STEM|POS:ADJ|LEM:r ⋯
      6 │       1      1      4      1  {l          DET     PREFIX|Al+
      7 │       1      1      4      2  r~aHiymi    ADJ     STEM|POS:ADJ|LEM:r
      8 │       1      2      1      1  {lo         DET     PREFIX|Al+
   ⋮    │    ⋮       ⋮      ⋮      ⋮        ⋮         ⋮                     ⋮  ⋱
 128213 │     114      5      5      2  n~aAsi      N       STEM|POS:N|LEM:n~a ⋯
 128214 │     114      6      1      1  mina        P       STEM|POS:P|LEM:min
 128215 │     114      6      2      1  {lo         DET     PREFIX|Al+
 128216 │     114      6      2      2  jin~api     N       STEM|POS:N|LEM:jin
 128217 │     114      6      3      1  wa          CONJ    PREFIX|w:CONJ+     ⋯
 128218 │     114      6      3      2  {l          DET     PREFIX|Al+
 128219 │     114      6      3      3  n~aAsi      N       STEM|POS:N|LEM:n~a
                                                1 column and 128204 rows omitted
…
 "bu\$~ira"
 ⋮
 "wa`Hid"
 "kaAna"
 "yarojuwA@"
 "rab~"
 "lo"
 "Eamila"
 ">a\$oraka"
 "EibaAdat"
 "rab~"
julia> crpsnew = CorpusData(crpsnew)Quranic Arabic Corpus (morphology)
(C) 2011 Kais Dukes

827×7 DataFrame
 Row │ chapter  verse  word   part   form       tag     features               ⋯
     │ Int64    Int64  Int64  Int64  String     String  String                 ⋯
─────┼──────────────────────────────────────────────────────────────────────────
   1 │      18      1      1      2  Hamod      N       STEM|POS:N|LEM:Hamod|R ⋯
   2 │      18      1      2      2  {ll~ah     PN      STEM|POS:PN|LEM:{ll~ah
   3 │      18      1      4      1  >anzala    V       STEM|POS:V|PERF|(IV)|L
   4 │      18      1      6      1  Eabod      N       STEM|POS:N|LEM:Eabod|R
   5 │      18      1      9      1  jaEala     V       STEM|POS:V|IMPF|LEM:ja ⋯
   6 │      18      1     11      1  Eiwaj      N       STEM|POS:N|LEM:Eiwaj|R
   7 │      18      2      2      1  l~i        PRP     PREFIX|l:PRP+
   8 │      18      2      2      2  >an*ara    V       STEM|POS:V|IMPF|(IV)|L
  ⋮  │    ⋮       ⋮      ⋮      ⋮        ⋮        ⋮                     ⋮      ⋱
 821 │      18    110     14      1  yarojuwA@  V       STEM|POS:V|IMPF|LEM:ya ⋯
 822 │      18    110     16      1  rab~       N       STEM|POS:N|LEM:rab~|RO
 823 │      18    110     17      2  lo         IMPV    PREFIX|l:IMPV+
 824 │      18    110     17      3  Eamila     V       STEM|POS:V|IMPF|LEM:Ea
 825 │      18    110     21      1  >a$oraka   V       STEM|POS:V|IMPF|(IV)|L ⋯
 826 │      18    110     22      2  EibaAdat   N       STEM|POS:N|LEM:EibaAda
 827 │      18    110     23      1  rab~       N       STEM|POS:N|LEM:rab~|RO
                                                   1 column and 812 rows omitted
…
