Text Summarization · QuranTree.jl
…
Edit on GitHub
Text Summarization
This section will demonstrate how to use TextAnalysis.jl (Julia's leading NLP library) for QuranTree.jl. In particular, in summarizing the Qur'an, specifically Chapter 18 (The Cave) which most Muslims are familiar with (this is the chapter recommended to be read every Friday). The algorithm used for summarization is called TextRank, an application of PageRank algorithm to text datasets.

julia> using QuranTree
julia> using TextAnalysis
julia> using Yunir
julia> crps, tnzl = QuranData() |> load;
julia> crpsdata = table(crps)Quranic Arabic Corpus (morphology)
(C) 2011 Kais Dukes

128219×7 DataFrame
    Row │ chapter  verse  word   part   form        tag     features           ⋯
        │ Int64    Int64  Int64  Int64  String      String  String             ⋯
────────┼───────────────────────────────────────────────────────────────────────
      1 │       1      1      1      1  bi          P       PREFIX|bi+         ⋯
      2 │       1      1      1      2  somi        N       STEM|POS:N|LEM:{so
      3 │       1      1      2      1  {ll~ahi     PN      STEM|POS:PN|LEM:{l
      4 │       1      1      3      1  {l          DET     PREFIX|Al+
      5 │       1      1      3      2  r~aHoma`ni  ADJ     STEM|POS:ADJ|LEM:r ⋯
      6 │       1      1      4      1  {l          DET     PREFIX|Al+
      7 │       1      1      4      2  r~aHiymi    ADJ     STEM|POS:ADJ|LEM:r
      8 │       1      2      1      1  {lo         DET     PREFIX|Al+
   ⋮    │    ⋮       ⋮      ⋮      ⋮        ⋮         ⋮                     ⋮  ⋱
 128213 │     114      5      5      2  n~aAsi      N       STEM|POS:N|LEM:n~a ⋯
 128214 │     114      6      1      1  mina        P       STEM|POS:P|LEM:min
 128215 │     114      6      2      1  {lo         DET     PREFIX|Al+
 128216 │     114      6      2      2  jin~api     N       STEM|POS:N|LEM:jin
 128217 │     114      6      3      1  wa          CONJ    PREFIX|w:CONJ+     ⋯
 128218 │     114      6      3      2  {l          DET     PREFIX|Al+
 128219 │     114      6      3      3  n~aAsi      N       STEM|POS:N|LEM:n~a
                                                1 column and 128204 rows omitted
…
